2 65 28
15 44 1
x
0 6 5
1 5 6
5 91 28
2 5 7
x
x
0 0 8
4 62 21
7 28 32
3 9 8
8 43 6
x
0 58 17
x
8 21 33
3 71 29
6 85 29
7 86 30
1 0 9
2 0 10
x
9 26 34
x
4 4 9
5 9 10
8 83 31
9 51 7
10 30 35
0 40 2
1 60 18
3 28 24
x
10 57 8
6 6 11
12 32 42
4 22 25
7 6 12
5 24 26
6 92 24
6 25 27
7 23 28
x
11 49 9
9 90 32
8 8 13
1 43 3
8 75 22
x
2 44 4
7 98 25
8 18 29
3 48 5
9 23 30
12 48 10
2 58 19
x
x
8 92 26
13 43 11
4 36 6
5 52 7
11 24 36
14 43 12
x
3 63 20
0 16 15
x
4 53 21
3 0 11
5 63 22
1 11 16
9 4 14
4 58 30
10 21 31
x
5 71 31
6 41 8
6 52 23
11 17 32
12 18 33
5 76 22
13 29 43
10 6 15
x
11 3 16
12 25 37
x
14 30 44
10 96 27
6 56 32
6 62 23
11 96 28
7 65 24
2 14 17
12 6 17
13 21 38
9 82 23
8 69 25
15 53 13
14 92 29
7 41 9
4 0 12
9 70 26
10 83 24
8 36 10
13 4 18
x
0 93 30
3 21 18
14 25 39
10 90 33
x
13 17 34
11 87 34
9 41 11
4 14 19
x
13 88 35
5 0 13
15 35 0
14 83 36
15 90 37
0 84 38
x
14 16 35
0 50 14
1 93 39
6 0 14
0 36 1
x
10 77 27
x
x
x
x
14 7 19
11 80 25
7 59 33
10 49 12
15 29 40
7 0 15
7 52 24
12 79 26
1 37 2
11 72 28
2 38 3
13 74 27
0 31 41
11 42 13
5 19 20
x
x
1 29 42
8 0 16
12 41 14
12 71 29
1 52 15
2 51 16
2 90 40
15 6 20
13 63 30
x
14 68 31
15 22 36
0 25 37
x
13 41 15
1 23 38
3 54 17
15 75 32
3 99 41
0 9 21
6 17 21
8 52 25
2 26 39
4 45 18
0 68 33
8 60 34
x
14 76 28
x
x
5 58 19
3 32 40
4 93 42
1 76 34
1 6 22
2 31 43
9 59 26
4 25 41
15 84 29
14 39 16
15 49 17
0 45 18
9 62 35
x
1 46 19
3 44 4
x
2 45 20
10 64 27
5 28 42
3 51 21
4 34 5
4 38 22
6 49 20
10 73 36
5 53 23
9 0 17
7 17 22
10 0 18
6 26 43
5 95 43
6 86 44
3 38 44
11 0 19
x
2 74 35
3 83 36
x
12 0 20
8 15 23
11 63 37
0 77 30
9 14 24
1 85 31
x
2 8 23
4 28 0
x
2 83 32
3 96 33
3 13 24
x
4 9 25
7 89 0
6 45 24
11 56 28
x
5 12 26
4 66 37
4 81 34
5 85 35
5 33 1
12 58 29
7 42 25
6 31 2
x
x
7 46 21
8 39 26
x
7 27 44
5 43 6
6 77 36
13 0 21
6 9 27
8 46 22
7 77 37
9 52 23
7 8 28
8 78 38
12 67 38
13 50 30
9 86 39
10 85 40
7 31 3
8 20 0
14 55 31
10 15 25
10 61 24
x
8 26 4
9 25 1
11 14 26
15 62 32
x
11 83 41
x
x
11 52 25
12 11 27
x
x
8 9 29
14 0 22
13 58 39
x
8 87 1
9 94 2
0 60 33
12 53 26
x
14 61 40
12 83 42
10 25 2
5 78 38
13 14 28
15 0 23
15 67 41
11 22 3
13 79 43
6 67 39
11 88 3
7 67 40
9 46 27
8 71 41
x
14 13 29
14 80 44
9 31 5
15 88 0
x
13 44 27
0 5 24
6 36 7
9 9 30
x
x
9 74 42
1 3 25
14 47 28
x
0 65 42
15 55 29
7 38 8
10 79 43
8 30 9
10 33 6
x
0 55 30
9 37 10
10 52 28
x
1 62 34
12 22 4
12 91 4
13 93 5
2 63 35
1 55 31
10 10 31
1 70 43
15 17 30
3 68 36
x
2 53 32
x
0 79 1
11 29 7
x
4 56 37
x
x
12 27 8
11 45 29
5 66 38
13 24 9
2 67 44
3 58 33
6 55 39
7 57 40
4 50 34
13 19 5
3 75 0
14 88 6
1 89 2
15 95 7
11 73 44
x
2 2 26
4 59 1
x
8 57 41
2 85 3
12 74 0
5 62 35
10 40 11
13 66 1
x
12 43 30
3 97 4
x
11 8 32
x
4 86 5
12 7 33
x
5 88 6
3 4 27
14 26 10
0 20 31
5 73 2
1 16 32
x
14 21 6
2 19 33
15 32 11
4 2 28
x
3 24 34
11 34 12
14 72 2
0 33 12
15 24 7
6 50 36
6 60 3
x
x
1 33 13
15 77 3
5 5 29
7 48 37
2 33 14
7 61 4
0 73 4
1 79 5
2 76 6
3 87 7
4 71 8
8 50 38
6 82 7
3 43 15
4 18 35
9 61 42
10 68 43
x
x
0 86 8
12 34 13
x
x
7 81 8
x
13 31 14
6 2 30
9 56 39
5 80 9
x
13 5 34
7 4 31
11 58 44
0 26 8
x
4 29 16
5 21 36
5 38 17
14 9 35
6 20 37
6 70 10
x
8 80 9
13 42 31
10 63 40
x
14 35 15
x
15 7 36
12 63 0
15 39 16
1 27 9
x
7 71 11
8 65 5
1 95 9
7 21 38
0 13 37
2 27 10
x
8 16 39
8 3 32
9 18 40
6 35 18
8 74 12
9 3 33
3 34 11
10 19 41
9 89 10
10 87 11
2 95 10
1 8 38
x
4 97 11
13 53 1
x
11 55 41
9 79 13
x
2 13 39
3 17 40
10 81 14
0 37 17
14 56 2
9 67 6
11 86 12
11 75 15
12 87 13
12 56 42
1 41 18
14 40 32
15 52 33
2 40 19
x
x
4 13 41
6 88 12
10 74 7
3 45 20
4 35 21
7 94 13
13 83 14
11 67 8
12 69 9
12 77 16
5 17 42
5 47 22
13 59 10
x
x
13 70 17
x
7 33 19
14 82 15
6 39 23
x
0 47 34
14 75 18
15 89 16
1 50 35
7 39 24
8 88 14
6 14 43
11 16 42
15 80 19
0 75 20
13 47 43
9 98 15
2 50 36
1 83 21
2 80 22
3 53 37
10 3 34
4 26 12
8 29 20
11 1 35
12 14 43
0 82 17
x
7 12 44
12 1 36
x
14 63 11
1 90 18
8 12 0
8 35 25
15 70 12
x
x
0 66 13
4 42 38
9 39 26
13 15 44
9 11 1
x
2 88 19
x
14 14 0
1 75 14
3 92 23
10 95 16
11 93 17
14 51 44
2 69 15
3 79 16
4 76 24
10 14 2
9 34 21
13 2 37
10 37 22
14 4 38
11 9 3
x
15 63 3
0 62 4
x
12 93 18
10 45 27
15 19 1
12 10 4
11 37 28
1 66 5
5 32 13
15 59 0
0 22 2
11 32 23
12 38 29
13 97 19
13 10 5
5 84 25
4 91 20
x
13 36 30
1 20 3
x
5 54 39
x
6 47 40
x
x
6 73 26
7 74 27
14 36 31
2 24 4
x
6 28 14
14 12 6
15 12 7
x
15 1 39
14 90 20
7 45 41
x
0 89 21
